%!PS-Adobe-3.0 EPSF-3.0
%%Creator: cairo 1.17.4 (https://cairographics.org)
%%CreationDate: Wed Dec 16 19:59:00 2020
%%Pages: 1
%%DocumentData: Clean7Bit
%%LanguageLevel: 2
%%BoundingBox: 104 407 464 788
%%EndComments
%%BeginProlog
50 dict begin
/q { gsave } bind def
/Q { grestore } bind def
/cm { 6 array astore concat } bind def
/w { setlinewidth } bind def
/J { setlinecap } bind def
/j { setlinejoin } bind def
/M { setmiterlimit } bind def
/d { setdash } bind def
/m { moveto } bind def
/l { lineto } bind def
/c { curveto } bind def
/h { closepath } bind def
/S { stroke } bind def
/f { fill } bind def
/f* { eofill } bind def
/g { setgray } bind def
%%EndProlog
%%BeginSetup
%%EndSetup
%%Page: 1 1
%%BeginPageSetup
%%PageBoundingBox: 104 407 464 788
%%EndPageSetup
q 104 407 360 381 rectclip
1 0 0 -1 0 842 cm q
0.51 g
20 w
0 J
1 j
[] 0.0 d
10 M 439.324 392.289 m 457.164 371.359 457.75 340.75 440.727 319.152 c 423.703
 297.559 393.801 290.98 369.285 303.438 c 301.969 327.688 256.184 306.156
 306.773 151.027 c 179.664 135.977 l 180.223 221.973 171.441 296.121 153.324
 358.422 c h
439.324 392.289 m S
213.113 397.727 m 215.195 380.176 231.105 367.633 248.656 369.711 c 266.207
 371.789 278.75 387.699 276.672 405.25 c 435.562 424.066 l 439.324 392.289
 l 153.324 358.422 l 149.559 390.199 l h
213.113 397.727 m f*
213.113 397.727 m 215.195 380.176 231.105 367.633 248.656 369.711 c 266.207
 371.789 278.75 387.699 276.672 405.25 c 435.562 424.066 l 439.324 392.289
 l 153.324 358.422 l 149.559 390.199 l h
213.113 397.727 m S
251.582 208.938 m 288.969 218.953 l f*
1 J
251.582 208.938 m 288.969 218.953 l S
247.82 240.719 m 285.648 244.832 l f*
247.82 240.719 m 285.648 244.832 l S
244.055 272.496 m 287.051 276.438 l f*
244.055 272.496 m 287.051 276.438 l S
256.184 306.156 m 293.812 294.5 l f*
256.184 306.156 m 293.812 294.5 l S
0 g
0 J
179.039 181.809 m 176.516 92.703 162.508 74.93 149.895 68.066 c 137.281
 61.203 126.059 65.246 119.824 72.562 c 113.586 79.879 112.332 90.473 120.102
 115.559 c 127.871 140.648 144.668 180.23 156.219 207.824 c 167.77 235.414
 174.078 251.016 170.824 276.332 c S
Q Q
showpage
%%Trailer
end
%%EOF
