%!PS-Adobe-3.0 EPSF-3.0
%%Creator: cairo 1.17.4 (https://cairographics.org)
%%CreationDate: Thu Dec 17 10:59:02 2020
%%Pages: 1
%%DocumentData: Clean7Bit
%%LanguageLevel: 2
%%BoundingBox: 86 246 492 522
%%EndComments
%%BeginProlog
50 dict begin
/q { gsave } bind def
/Q { grestore } bind def
/cm { 6 array astore concat } bind def
/w { setlinewidth } bind def
/J { setlinecap } bind def
/j { setlinejoin } bind def
/M { setmiterlimit } bind def
/d { setdash } bind def
/m { moveto } bind def
/l { lineto } bind def
/c { curveto } bind def
/h { closepath } bind def
/re { exch dup neg 3 1 roll 5 3 roll moveto 0 rlineto
      0 exch rlineto 0 rlineto closepath } bind def
/S { stroke } bind def
/f { fill } bind def
/f* { eofill } bind def
/n { newpath } bind def
/W { clip } bind def
/W* { eoclip } bind def
/BT { } bind def
/ET { } bind def
/BDC { mark 3 1 roll /BDC pdfmark } bind def
/EMC { mark /EMC pdfmark } bind def
/cairo_store_point { /cairo_point_y exch def /cairo_point_x exch def } def
/Tj { show currentpoint cairo_store_point } bind def
/TJ {
  {
    dup
    type /stringtype eq
    { show } { -0.001 mul 0 cairo_font_matrix dtransform rmoveto } ifelse
  } forall
  currentpoint cairo_store_point
} bind def
/cairo_selectfont { cairo_font_matrix aload pop pop pop 0 0 6 array astore
    cairo_font exch selectfont cairo_point_x cairo_point_y moveto } bind def
/Tf { pop /cairo_font exch def /cairo_font_matrix where
      { pop cairo_selectfont } if } bind def
/Td { matrix translate cairo_font_matrix matrix concatmatrix dup
      /cairo_font_matrix exch def dup 4 get exch 5 get cairo_store_point
      /cairo_font where { pop cairo_selectfont } if } bind def
/Tm { 2 copy 8 2 roll 6 array astore /cairo_font_matrix exch def
      cairo_store_point /cairo_font where { pop cairo_selectfont } if } bind def
/g { setgray } bind def
/rg { setrgbcolor } bind def
/d1 { setcachedevice } bind def
/cairo_data_source {
  CairoDataIndex CairoData length lt
    { CairoData CairoDataIndex get /CairoDataIndex CairoDataIndex 1 add def }
    { () } ifelse
} def
/cairo_flush_ascii85_file { cairo_ascii85_file status { cairo_ascii85_file flushfile } if } def
/cairo_image { image cairo_flush_ascii85_file } def
/cairo_imagemask { imagemask cairo_flush_ascii85_file } def
%%EndProlog
%%BeginSetup
%%EndSetup
%%Page: 1 1
%%BeginPageSetup
%%PageBoundingBox: 86 246 492 522
%%EndPageSetup
q 86 246 406 276 rectclip
1 0 0 -1 0 842 cm q
0 g
10 w
0 J
1 j
[ 4 4] 0 d
10 M 175.645 461.621 m 96 506 l S
0.275 g
20 w
[] 0.0 d
256 330 m 96 586 l 416 586 l h
256 330 m S
1 0 0 rg
175.414 458.223 m 174.371 459.891 l 334.129 455.949 l 331.113 451.121 l
 h
175.414 458.223 m f*
0.4 w
175.414 458.223 m 174.371 459.891 l 334.129 455.949 l 331.113 451.121 l
 h
175.414 458.223 m S
1 0.647 0 rg
174.371 459.891 m 173.289 461.621 l 337.547 461.418 l 334.129 455.949 l
 h
174.371 459.891 m f*
174.371 459.891 m 173.289 461.621 l 337.547 461.418 l 334.129 455.949 l
 h
174.371 459.891 m S
0.18 0.545 0.341 rg
173.289 461.621 m 172.387 463.066 l 340.703 466.461 l 337.547 461.418 l
 h
173.289 461.621 m f*
173.289 461.621 m 172.387 463.066 l 340.703 466.461 l 337.547 461.418 l
 h
173.289 461.621 m S
0.545 0 0.545 rg
340.703 466.461 m 172.387 463.066 l 171.566 464.383 l 344.273 472.18 l 
h
340.703 466.461 m f*
340.703 466.461 m 172.387 463.066 l 171.566 464.383 l 344.273 472.18 l 
h
340.703 466.461 m S
1 0 0 rg
334.129 455.949 m 331.113 451.121 l 488.43 498.566 l 488.934 515.141 l 
h
334.129 455.949 m f*
334.129 455.949 m 331.113 451.121 l 488.43 498.566 l 488.934 515.141 l 
h
334.129 455.949 m S
1 0.647 0 rg
488.934 515.141 m 334.129 455.949 l 337.547 461.418 l 489.504 534.016 l
 h
488.934 515.141 m f*
488.934 515.141 m 334.129 455.949 l 337.547 461.418 l 489.504 534.016 l
 h
488.934 515.141 m S
0.18 0.545 0.341 rg
489.504 534.016 m 337.547 461.418 l 340.703 466.461 l 490.16 555.664 l 
h
489.504 534.016 m f*
489.504 534.016 m 337.547 461.418 l 340.703 466.461 l 490.16 555.664 l 
h
489.504 534.016 m S
0.545 0 0.545 rg
490.16 555.664 m 340.703 466.461 l 344.273 472.18 l 490.973 582.445 l 490.758
 575.359 l h
490.16 555.664 m f*
490.16 555.664 m 340.703 466.461 l 344.273 472.18 l 490.973 582.445 l 490.758
 575.359 l h
490.16 555.664 m S
Q Q
showpage
%%Trailer
end
%%EOF
